{
  "data": [
    {
      "code": "55405",
      "name": "1_TRG_L-V_INV25",
      "depotCode": "55f3cec28a",
      "startPlace": null,
      "endPlace": null,
      "origin": "GOAL_DRIVER",
      "type": null,
      "category": "DRIVING",
      "startHour": "06:23",
      "endHour": "14:10",
      "startDate": "2025-01-13",
      "endDate": "2025-01-13",
      "drivingTime": null,
      "paidTime": null,
      "breakTime": null,
      "overTime": null,
      "amplitude": "07:47",
      "workingTime": null,
      "nightTime": null,
      "availabilityTime": null,
      "overtime": null,
      "workingGroupCode": null,
      "businessUnitCode": null,
      "lineName": null,
      "serviceName": null
    },
    {
      "code": "55405",
      "name": "1_TRG_L-V_INV25",
      "depotCode": "55f3cec28a",
      "startPlace": null,
      "endPlace": null,
      "origin": "GOAL_DRIVER",
      "type": null,
      "category": "DRIVING",
      "startHour": "06:23",
      "endHour": "14:10",
      "startDate": "2025-01-14",
      "endDate": "2025-01-14",
      "drivingTime": null,
      "paidTime": null,
      "breakTime": null,
      "overTime": null,
      "amplitude": "07:47",
      "workingTime": null,
      "nightTime": null,
      "availabilityTime": null,
      "overtime": null,
      "workingGroupCode": null,
      "businessUnitCode": null,
      "lineName": null,
      "serviceName": null
    },
    {
      "code": "55405",
      "name": "1_TRG_L-V_INV25",
      "depotCode": "55f3cec28a",
      "startPlace": null,
      "endPlace": null,
      "origin": "GOAL_DRIVER",
      "type": null,
      "category": "DRIVING",
      "startHour": "06:23",
      "endHour": "14:10",
      "startDate": "2025-01-15",
      "endDate": "2025-01-15",
      "drivingTime": null,
      "paidTime": null,
      "breakTime": null,
      "overTime": null,
      "amplitude": "07:47",
      "workingTime": null,
      "nightTime": null,
      "availabilityTime": null,
      "overtime": null,
      "workingGroupCode": null,
      "businessUnitCode": null,
      "lineName": null,
      "serviceName": null
    },
    {
      "code": "55405",
      "name": "1_TRG_L-V_INV25",
      "depotCode": "55f3cec28a",
      "startPlace": null,
      "endPlace": null,
      "origin": "GOAL_DRIVER",
      "type": null,
      "category": "DRIVING",
      "startHour": "06:23",
      "endHour": "14:10",
      "startDate": "2025-01-16",
      "endDate": "2025-01-16",
      "drivingTime": null,
      "paidTime": null,
      "breakTime": null,
      "overTime": null,
      "amplitude": "07:47",
      "workingTime": null,
      "nightTime": null,
      "availabilityTime": null,
      "overtime": null,
      "workingGroupCode": null,
      "businessUnitCode": null,
      "lineName": null,
      "serviceName": null
    },
    {
      "code": "55405",
      "name": "1_TRG_L-V_INV25",
      "depotCode": "55f3cec28a",
      "startPlace": null,
      "endPlace": null,
      "origin": "GOAL_DRIVER",
      "type": null,
      "category": "DRIVING",
      "startHour": "06:23",
      "endHour": "14:10",
      "startDate": "2025-01-17",
      "endDate": "2025-01-17",
      "drivingTime": null,
      "paidTime": null,
      "breakTime": null,
      "overTime": null,
      "amplitude": "07:47",
      "workingTime": null,
      "nightTime": null,
      "availabilityTime": null,
      "overtime": null,
      "workingGroupCode": null,
      "businessUnitCode": null,
      "lineName": null,
      "serviceName": null
    },
    {
      "code": "55405",
      "name": "1_TRG_L-V_INV25",
      "depotCode": "55f3cec28a",
      "startPlace": null,
      "endPlace": null,
      "origin": "GOAL_DRIVER",
      "type": null,
      "category": "DRIVING",
      "startHour": "06:23",
      "endHour": "14:10",
      "startDate": "2025-01-20",
      "endDate": "2025-01-20",
      "drivingTime": null,
      "paidTime": null,
      "breakTime": null,
      "overTime": null,
      "amplitude": "07:47",
      "workingTime": null,
      "nightTime": null,
      "availabilityTime": null,
      "overtime": null,
      "workingGroupCode": null,
      "businessUnitCode": null,
      "lineName": null,
      "serviceName": null
    },
    {
      "code": "55405",
      "name": "1_TRG_L-V_INV25",
      "depotCode": "55f3cec28a",
      "startPlace": null,
      "endPlace": null,
      "origin": "GOAL_DRIVER",
      "type": null,
      "category": "DRIVING",
      "startHour": "06:23",
      "endHour": "14:10",
      "startDate": "2025-01-21",
      "endDate": "2025-01-21",
      "drivingTime": null,
      "paidTime": null,
      "breakTime": null,
      "overTime": null,
      "amplitude": "07:47",
      "workingTime": null,
      "nightTime": null,
      "availabilityTime": null,
      "overtime": null,
      "workingGroupCode": null,
      "businessUnitCode": null,
      "lineName": null,
      "serviceName": null
    },
    {
      "code": "55405",
      "name": "1_TRG_L-V_INV25",
      "depotCode": "55f3cec28a",
      "startPlace": null,
      "endPlace": null,
      "origin": "GOAL_DRIVER",
      "type": null,
      "category": "DRIVING",
      "startHour": "06:23",
      "endHour": "14:10",
      "startDate": "2025-01-22",
      "endDate": "2025-01-22",
      "drivingTime": null,
      "paidTime": null,
      "breakTime": null,
      "overTime": null,
      "amplitude": "07:47",
      "workingTime": null,
      "nightTime": null,
      "availabilityTime": null,
      "overtime": null,
      "workingGroupCode": null,
      "businessUnitCode": null,
      "lineName": null,
      "serviceName": null
    },
    {
      "code": "55405",
      "name": "1_TRG_L-V_INV25",
      "depotCode": "55f3cec28a",
      "startPlace": null,
      "endPlace": null,
      "origin": "GOAL_DRIVER",
      "type": null,
      "category": "DRIVING",
      "startHour": "06:23",
      "endHour": "14:10",
      "startDate": "2025-01-23",
      "endDate": "2025-01-23",
      "drivingTime": null,
      "paidTime": null,
      "breakTime": null,
      "overTime": null,
      "amplitude": "07:47",
      "workingTime": null,
      "nightTime": null,
      "availabilityTime": null,
      "overtime": null,
      "workingGroupCode": null,
      "businessUnitCode": null,
      "lineName": null,
      "serviceName": null
    },
    {
      "code": "55405",
      "name": "1_TRG_L-V_INV25",
      "depotCode": "55f3cec28a",
      "startPlace": null,
      "endPlace": null,
      "origin": "GOAL_DRIVER",
      "type": null,
      "category": "DRIVING",
      "startHour": "06:23",
      "endHour": "14:10",
      "startDate": "2025-01-24",
      "endDate": "2025-01-24",
      "drivingTime": null,
      "paidTime": null,
      "breakTime": null,
      "overTime": null,
      "amplitude": "07:47",
      "workingTime": null,
      "nightTime": null,
      "availabilityTime": null,
      "overtime": null,
      "workingGroupCode": null,
      "businessUnitCode": null,
      "lineName": null,
      "serviceName": null
    },
    {
      "code": "55405",
      "name": "1_TRG_L-V_INV25",
      "depotCode": "55f3cec28a",
      "startPlace": null,
      "endPlace": null,
      "origin": "GOAL_DRIVER",
      "type": null,
      "category": "DRIVING",
      "startHour": "06:23",
      "endHour": "14:10",
      "startDate": "2025-01-27",
      "endDate": "2025-01-27",
      "drivingTime": null,
      "paidTime": null,
      "breakTime": null,
      "overTime": null,
      "amplitude": "07:47",
      "workingTime": null,
      "nightTime": null,
      "availabilityTime": null,
      "overtime": null,
      "workingGroupCode": null,
      "businessUnitCode": null,
      "lineName": null,
      "serviceName": null
    },
    {
      "code": "55405",
      "name": "1_TRG_L-V_INV25",
      "depotCode": "55f3cec28a",
      "startPlace": null,
      "endPlace": null,
      "origin": "GOAL_DRIVER",
      "type": null,
      "category": "DRIVING",
      "startHour": "06:23",
      "endHour": "14:10",
      "startDate": "2025-01-29",
      "endDate": "2025-01-29",
      "drivingTime": null,
      "paidTime": null,
      "breakTime": null,
      "overTime": null,
      "amplitude": "07:47",
      "workingTime": null,
      "nightTime": null,
      "availabilityTime": null,
      "overtime": null,
      "workingGroupCode": null,
      "businessUnitCode": null,
      "lineName": null,
      "serviceName": null
    },
    {
      "code": "55405",
      "name": "1_TRG_L-V_INV25",
      "depotCode": "55f3cec28a",
      "startPlace": null,
      "endPlace": null,
      "origin": "GOAL_DRIVER",
      "type": null,
      "category": "DRIVING",
      "startHour": "06:23",
      "endHour": "14:10",
      "startDate": "2025-01-30",
      "endDate": "2025-01-30",
      "drivingTime": null,
      "paidTime": null,
      "breakTime": null,
      "overTime": null,
      "amplitude": "07:47",
      "workingTime": null,
      "nightTime": null,
      "availabilityTime": null,
      "overtime": null,
      "workingGroupCode": null,
      "businessUnitCode": null,
      "lineName": null,
      "serviceName": null
    },
    {
      "code": "55405",
      "name": "1_TRG_L-V_INV25",
      "depotCode": "55f3cec28a",
      "startPlace": null,
      "endPlace": null,
      "origin": "GOAL_DRIVER",
      "type": null,
      "category": "DRIVING",
      "startHour": "06:23",
      "endHour": "14:10",
      "startDate": "2025-01-31",
      "endDate": "2025-01-31",
      "drivingTime": null,
      "paidTime": null,
      "breakTime": null,
      "overTime": null,
      "amplitude": "07:47",
      "workingTime": null,
      "nightTime": null,
      "availabilityTime": null,
      "overtime": null,
      "workingGroupCode": null,
      "businessUnitCode": null,
      "lineName": null,
      "serviceName": null
    },
    {
      "code": "55405",
      "name": "1_TRG_L-V_INV25",
      "depotCode": "55f3cec28a",
      "startPlace": null,
      "endPlace": null,
      "origin": "GOAL_DRIVER",
      "type": null,
      "category": "DRIVING",
      "startHour": "06:23",
      "endHour": "14:10",
      "startDate": "2025-02-03",
      "endDate": "2025-02-03",
      "drivingTime": null,
      "paidTime": null,
      "breakTime": null,
      "overTime": null,
      "amplitude": "07:47",
      "workingTime": null,
      "nightTime": null,
      "availabilityTime": null,
      "overtime": null,
      "workingGroupCode": null,
      "businessUnitCode": null,
      "lineName": null,
      "serviceName": null
    },
    {
      "code": "55405",
      "name": "1_TRG_L-V_INV25",
      "depotCode": "55f3cec28a",
      "startPlace": null,
      "endPlace": null,
      "origin": "GOAL_DRIVER",
      "type": null,
      "category": "DRIVING",
      "startHour": "06:23",
      "endHour": "14:10",
      "startDate": "2025-02-04",
      "endDate": "2025-02-04",
      "drivingTime": null,
      "paidTime": null,
      "breakTime": null,
      "overTime": null,
      "amplitude": "07:47",
      "workingTime": null,
      "nightTime": null,
      "availabilityTime": null,
      "overtime": null,
      "workingGroupCode": null,
      "businessUnitCode": null,
      "lineName": null,
      "serviceName": null
    },
    {
      "code": "55405",
      "name": "1_TRG_L-V_INV25",
      "depotCode": "55f3cec28a",
      "startPlace": null,
      "endPlace": null,
      "origin": "GOAL_DRIVER",
      "type": null,
      "category": "DRIVING",
      "startHour": "06:23",
      "endHour": "14:10",
      "startDate": "2025-02-05",
      "endDate": "2025-02-05",
      "drivingTime": null,
      "paidTime": null,
      "breakTime": null,
      "overTime": null,
      "amplitude": "07:47",
      "workingTime": null,
      "nightTime": null,
      "availabilityTime": null,
      "overtime": null,
      "workingGroupCode": null,
      "businessUnitCode": null,
      "lineName": null,
      "serviceName": null
    },
    {
      "code": "55405",
      "name": "1_TRG_L-V_INV25",
      "depotCode": "55f3cec28a",
      "startPlace": null,
      "endPlace": null,
      "origin": "GOAL_DRIVER",
      "type": null,
      "category": "DRIVING",
      "startHour": "06:23",
      "endHour": "14:10",
      "startDate": "2025-02-06",
      "endDate": "2025-02-06",
      "drivingTime": null,
      "paidTime": null,
      "breakTime": null,
      "overTime": null,
      "amplitude": "07:47",
      "workingTime": null,
      "nightTime": null,
      "availabilityTime": null,
      "overtime": null,
      "workingGroupCode": null,
      "businessUnitCode": null,
      "lineName": null,
      "serviceName": null
    },
    {
      "code": "55405",
      "name": "1_TRG_L-V_INV25",
      "depotCode": "55f3cec28a",
      "startPlace": null,
      "endPlace": null,
      "origin": "GOAL_DRIVER",
      "type": null,
      "category": "DRIVING",
      "startHour": "06:23",
      "endHour": "14:10",
      "startDate": "2025-02-07",
      "endDate": "2025-02-07",
      "drivingTime": null,
      "paidTime": null,
      "breakTime": null,
      "overTime": null,
      "amplitude": "07:47",
      "workingTime": null,
      "nightTime": null,
      "availabilityTime": null,
      "overtime": null,
      "workingGroupCode": null,
      "businessUnitCode": null,
      "lineName": null,
      "serviceName": null
    },
    {
      "code": "55405",
      "name": "1_TRG_L-V_INV25",
      "depotCode": "55f3cec28a",
      "startPlace": null,
      "endPlace": null,
      "origin": "GOAL_DRIVER",
      "type": null,
      "category": "DRIVING",
      "startHour": "06:23",
      "endHour": "14:10",
      "startDate": "2025-02-10",
      "endDate": "2025-02-10",
      "drivingTime": null,
      "paidTime": null,
      "breakTime": null,
      "overTime": null,
      "amplitude": "07:47",
      "workingTime": null,
      "nightTime": null,
      "availabilityTime": null,
      "overtime": null,
      "workingGroupCode": null,
      "businessUnitCode": null,
      "lineName": null,
      "serviceName": null
    }
  ],
  "totalRecords": 1086,
  "currentPage": 0,
  "totalPages": 55
}